{
  "version": 1,
  "projects": {
    "react-app": {
      "root": "apps/react-app",
      "sourceRoot": "apps/react-app/src",
      "projectType": "application",
      "schematics": {},
      "architect": {
        "build": {
          "builder": "@nrwl/web:build",
          "options": {
            "outputPath": "dist/apps/react-app",
            "index": "apps/react-app/src/index.html",
            "main": "apps/react-app/src/main.tsx",
            "polyfills": "apps/react-app/src/polyfills.ts",
            "tsConfig": "apps/react-app/tsconfig.app.json",
            "assets": [
              "apps/react-app/src/favicon.ico",
              "apps/react-app/src/assets"
            ],
            "styles": ["apps/react-app/src/styles.scss"],
            "scripts": [],
            "webpackConfig": "@nrwl/react/plugins/webpack"
          },
          "configurations": {
            "production": {
              "fileReplacements": [
                {
                  "replace": "apps/react-app/src/environments/environment.ts",
                  "with": "apps/react-app/src/environments/environment.prod.ts"
                }
              ],
              "optimization": true,
              "outputHashing": "all",
              "sourceMap": false,
              "extractCss": true,
              "namedChunks": false,
              "extractLicenses": true,
              "vendorChunk": false,
              "budgets": [
                {
                  "type": "initial",
                  "maximumWarning": "2mb",
                  "maximumError": "5mb"
                }
              ]
            }
          }
        },
        "serve": {
          "builder": "@nrwl/web:dev-server",
          "options": {
            "port": 3000,
            "buildTarget": "react-app:build"
          },
          "configurations": {
            "production": {
              "buildTarget": "react-app:build:production"
            }
          }
        },
        "lint": {
          "builder": "@nrwl/linter:eslint",
          "options": {
            "lintFilePatterns": ["apps/react-app/**/*.{ts,tsx,js,jsx}"]
          }
        },
        "test": {
          "builder": "@nrwl/jest:jest",
          "options": {
            "jestConfig": "apps/react-app/jest.config.js",
            "passWithNoTests": true
          }
        }
      }
    },
    "react-app-e2e": {
      "root": "apps/react-app-e2e",
      "sourceRoot": "apps/react-app-e2e/src",
      "projectType": "application",
      "architect": {
        "e2e": {
          "builder": "@nrwl/cypress:cypress",
          "options": {
            "cypressConfig": "apps/react-app-e2e/cypress.json",
            "tsConfig": "apps/react-app-e2e/tsconfig.e2e.json",
            "devServerTarget": "react-app:serve"
          },
          "configurations": {
            "production": {
              "devServerTarget": "react-app:serve:production"
            }
          }
        },
        "lint": {
          "builder": "@nrwl/linter:eslint",
          "options": {
            "lintFilePatterns": ["apps/react-app-e2e/**/*.{js,ts}"]
          }
        }
      }
    },
    "angular-app": {
      "projectType": "application",
      "schematics": {
        "@schematics/angular:component": {
          "style": "scss"
        }
      },
      "root": "apps/angular-app",
      "sourceRoot": "apps/angular-app/src",
      "prefix": "coding-hell-test",
      "architect": {
        "build": {
          "builder": "@angular-devkit/build-angular:browser",
          "options": {
            "outputPath": "dist/apps/angular-app",
            "index": "apps/angular-app/src/index.html",
            "main": "apps/angular-app/src/main.ts",
            "polyfills": "apps/angular-app/src/polyfills.ts",
            "tsConfig": "apps/angular-app/tsconfig.app.json",
            "aot": true,
            "assets": [
              "apps/angular-app/src/favicon.ico",
              "apps/angular-app/src/assets"
            ],
            "styles": ["apps/angular-app/src/styles.scss"],
            "scripts": []
          },
          "configurations": {
            "production": {
              "fileReplacements": [
                {
                  "replace": "apps/angular-app/src/environments/environment.ts",
                  "with": "apps/angular-app/src/environments/environment.prod.ts"
                }
              ],
              "optimization": true,
              "outputHashing": "all",
              "sourceMap": false,
              "extractCss": true,
              "namedChunks": false,
              "extractLicenses": true,
              "vendorChunk": false,
              "buildOptimizer": true,
              "budgets": [
                {
                  "type": "initial",
                  "maximumWarning": "2mb",
                  "maximumError": "5mb"
                },
                {
                  "type": "anyComponentStyle",
                  "maximumWarning": "6kb",
                  "maximumError": "10kb"
                }
              ]
            }
          }
        },
        "serve": {
          "builder": "@angular-devkit/build-angular:dev-server",
          "options": {
            "browserTarget": "angular-app:build"
          },
          "configurations": {
            "production": {
              "browserTarget": "angular-app:build:production"
            }
          }
        },
        "extract-i18n": {
          "builder": "@angular-devkit/build-angular:extract-i18n",
          "options": {
            "browserTarget": "angular-app:build"
          }
        },
        "lint": {
          "builder": "@angular-devkit/build-angular:tslint",
          "options": {
            "tsConfig": [
              "apps/angular-app/tsconfig.app.json",
              "apps/angular-app/tsconfig.spec.json",
              "apps/angular-app/tsconfig.editor.json"
            ],
            "exclude": ["**/node_modules/**", "!apps/angular-app/**/*"]
          }
        },
        "test": {
          "builder": "@nrwl/jest:jest",
          "options": {
            "jestConfig": "apps/angular-app/jest.config.js",
            "passWithNoTests": true
          }
        }
      }
    },
    "angular-app-e2e": {
      "root": "apps/angular-app-e2e",
      "sourceRoot": "apps/angular-app-e2e/src",
      "projectType": "application",
      "architect": {
        "e2e": {
          "builder": "@nrwl/cypress:cypress",
          "options": {
            "cypressConfig": "apps/angular-app-e2e/cypress.json",
            "tsConfig": "apps/angular-app-e2e/tsconfig.e2e.json",
            "devServerTarget": "angular-app:serve"
          },
          "configurations": {
            "production": {
              "devServerTarget": "angular-app:serve:production"
            }
          }
        },
        "lint": {
          "builder": "@angular-devkit/build-angular:tslint",
          "options": {
            "tsConfig": ["apps/angular-app-e2e/tsconfig.e2e.json"],
            "exclude": ["**/node_modules/**", "!apps/angular-app-e2e/**/*"]
          }
        }
      }
    },
    "myapp": {
      "root": "apps/myapp",
      "sourceRoot": "apps/myapp/src",
      "projectType": "application",
      "prefix": "myapp",
      "schematics": {},
      "architect": {
        "build": {
          "builder": "@nrwl/node:build",
          "options": {
            "outputPath": "dist/apps/myapp",
            "main": "apps/myapp/src/main.ts",
            "tsConfig": "apps/myapp/tsconfig.app.json",
            "assets": ["apps/myapp/src/assets"]
          },
          "configurations": {
            "production": {
              "optimization": true,
              "extractLicenses": true,
              "inspect": false,
              "fileReplacements": [
                {
                  "replace": "apps/myapp/src/environments/environment.ts",
                  "with": "apps/myapp/src/environments/environment.prod.ts"
                }
              ]
            }
          }
        },
        "serve": {
          "builder": "@nrwl/node:execute",
          "options": {
            "buildTarget": "myapp:build"
          }
        },
        "lint": {
          "builder": "@nrwl/linter:eslint",
          "options": {
            "lintFilePatterns": ["apps/myapp/**/*.ts"]
          }
        },
        "test": {
          "builder": "@nrwl/jest:jest",
          "options": {
            "jestConfig": "apps/myapp/jest.config.js",
            "passWithNoTests": true
          }
        }
      }
    },
    "node-app": {
      "root": "apps/node-app",
      "sourceRoot": "apps/node-app/src",
      "projectType": "application",
      "prefix": "node-app",
      "schematics": {},
      "architect": {
        "build": {
          "builder": "@nrwl/node:build",
          "options": {
            "outputPath": "dist/apps/node-app",
            "main": "apps/node-app/src/main.ts",
            "tsConfig": "apps/node-app/tsconfig.app.json",
            "assets": ["apps/node-app/src/assets"]
          },
          "configurations": {
            "production": {
              "optimization": true,
              "extractLicenses": true,
              "inspect": false,
              "fileReplacements": [
                {
                  "replace": "apps/node-app/src/environments/environment.ts",
                  "with": "apps/node-app/src/environments/environment.prod.ts"
                }
              ]
            }
          }
        },
        "serve": {
          "builder": "@nrwl/node:execute",
          "options": {
            "buildTarget": "node-app:build"
          }
        },
        "lint": {
          "builder": "@nrwl/linter:eslint",
          "options": {
            "lintFilePatterns": ["apps/node-app/**/*.ts"]
          }
        },
        "test": {
          "builder": "@nrwl/jest:jest",
          "options": {
            "jestConfig": "apps/node-app/jest.config.js",
            "passWithNoTests": true
          }
        }
      }
    },
    "express-app": {
      "root": "apps/express-app",
      "sourceRoot": "apps/express-app/src",
      "projectType": "application",
      "prefix": "express-app",
      "schematics": {},
      "architect": {
        "build": {
          "builder": "@nrwl/node:build",
          "options": {
            "outputPath": "dist/apps/express-app",
            "main": "apps/express-app/src/main.ts",
            "tsConfig": "apps/express-app/tsconfig.app.json",
            "assets": ["apps/express-app/src/assets"]
          },
          "configurations": {
            "production": {
              "optimization": true,
              "extractLicenses": true,
              "inspect": false,
              "fileReplacements": [
                {
                  "replace": "apps/express-app/src/environments/environment.ts",
                  "with": "apps/express-app/src/environments/environment.prod.ts"
                }
              ]
            }
          }
        },
        "serve": {
          "builder": "@nrwl/node:execute",
          "options": {
            "buildTarget": "express-app:build"
          }
        },
        "lint": {
          "builder": "@nrwl/linter:eslint",
          "options": {
            "lintFilePatterns": ["apps/express-app/**/*.ts"]
          }
        },
        "test": {
          "builder": "@nrwl/jest:jest",
          "options": {
            "jestConfig": "apps/express-app/jest.config.js",
            "passWithNoTests": true
          }
        }
      }
    }
  },
  "cli": {
    "defaultCollection": "@nrwl/react"
  },
  "schematics": {
    "@nrwl/react": {
      "application": {
        "style": "scss",
        "linter": "eslint",
        "babel": true
      },
      "component": {
        "style": "scss"
      },
      "library": {
        "style": "scss",
        "linter": "eslint"
      }
    },
    "@nrwl/angular:application": {
      "unitTestRunner": "jest",
      "e2eTestRunner": "cypress"
    },
    "@nrwl/angular:library": {
      "unitTestRunner": "jest"
    }
  },
  "defaultProject": "react-app"
}
